<svg
  t="1629334009757"
  class="icon"
  viewBox="0 0 1024 1024"
  version="1.1"
  xmlns="http://www.w3.org/2000/svg"
  p-id="5159"
  width="24"
  height="24"
><path
    d="M958.805333 729.770667l-138.24-79.872 126.976-39.594667c18.432-5.802667 28.672-25.258667 22.869334-43.690667-5.802667-18.432-25.258667-28.672-43.690667-22.869333l-188.074667 58.709333-157.013333-90.453333 153.6-88.746667 191.146667 59.733334c3.413333 1.024 6.826667 1.706667 10.24 1.706666 15.018667 0 28.672-9.557333 33.450666-24.576 5.802667-18.432-4.437333-37.888-22.869333-43.690666l-130.048-40.618667 140.288-80.896c16.725333-9.557333 22.528-31.061333 12.629333-47.786667-9.557333-16.725333-31.061333-22.528-47.786666-12.629333l-138.24 79.872 29.013333-129.706667c4.096-18.773333-7.509333-37.546667-26.282667-41.642666-18.773333-4.096-37.546667 7.509333-41.642666 26.282666L702.122667 361.813333l-156.330667 90.453334V275.797333L692.906667 140.288c14.336-12.970667 15.018667-35.157333 2.048-49.152-12.970667-14.336-35.157333-15.018667-49.152-2.048l-100.010667 92.16V35.498667c0-19.114667-15.701333-34.816-34.816-34.816s-34.816 15.701333-34.816 34.816v143.701333L378.197333 88.746667c-14.336-12.970667-36.181333-12.288-49.152 2.048-12.970667 14.336-12.288 36.181333 2.048 49.152l145.408 133.802666v177.152l-153.941333-88.746666-43.349333-192.170667c-4.096-18.773333-22.869333-30.72-41.642667-26.282667-18.773333 4.096-30.72 22.869333-26.282667 41.642667l29.013334 129.706667-139.264-80.213334c-16.725333-9.557333-37.888-3.754667-47.786667 12.629334-9.557333 16.725333-3.754667 37.888 12.629333 47.786666l140.970667 81.237334-130.048 40.618666c-18.432 5.802667-28.672 25.258667-22.869333 43.690667 4.778667 15.018667 18.432 24.576 33.450666 24.576 3.413333 0 6.826667-0.682667 10.581334-1.706667l191.146666-59.733333 152.917334 88.405333-155.989334 90.112-188.074666-58.709333c-18.432-5.802667-37.888 4.437333-43.690667 22.869333-5.802667 18.432 4.437333 37.888 22.869333 43.690667l126.976 39.594667-138.922666 80.213333c-16.725333 9.557333-22.528 31.061333-12.629334 47.786667 6.485333 11.264 18.090667 17.408 30.378667 17.408 5.802667 0 11.946667-1.365333 17.408-4.778667l140.970667-81.237333-29.696 132.778666c-4.096 18.773333 7.509333 37.546667 26.282666 41.642667 2.730667 0.682667 5.12 1.024 7.509334 1.024 16.042667 0 30.378667-10.922667 34.133333-27.306667l44.032-195.584 153.258667-88.405333v180.906667l-145.408 133.802666c-14.336 12.970667-15.018667 35.157333-2.048 49.152 6.826667 7.509333 16.384 11.264 25.6 11.264 8.533333 0 17.066667-3.072 23.552-9.216l97.962666-90.112v138.922667c0 19.114667 15.701333 34.816 34.816 34.816s34.816-15.701333 34.816-34.816v-140.629333l100.010667 92.16c14.336 12.970667 36.181333 12.288 49.152-2.048 12.970667-14.336 12.288-36.181333-2.048-49.152L546.133333 752.981333v-180.224l155.648 89.770667 44.032 195.584c3.754667 16.384 18.090667 27.306667 34.133334 27.306667 2.389333 0 5.12-0.341333 7.509333-1.024 18.773333-4.096 30.72-22.869333 26.282667-41.642667l-29.696-132.778667 140.288 80.896c5.461333 3.072 11.605333 4.778667 17.408 4.778667 11.946667 0 23.893333-6.144 30.378666-17.408 9.216-17.408 3.413333-38.570667-13.312-48.469333z m0 0"
    p-id="5160"
    fill="#8a8a8a"
  /></svg>
